Bridging Data and Decision-Making: Data Visualization Techniques with R
…
# A tibble: 40 × 7
   field                      reference today field_today field_ref change trend
   <chr>                          <dbl> <dbl> <fct>       <fct>      <dbl> <fct>
 1 Anatomy                         20.9     9 Anatomy     Anatomy   -11.9  Stab…
 2 Bacteriology                    22.7    13 Bacteriolo… Bacterio…  -9.67 Stab…
 3 Biochemistry (biological …     840     815 Biochemist… Biochemi… -25    <NA> 
 4 Bioinformatics                 161.    183 Bioinforma… Bioinfor…  22.2  Smal…
 5 Biological and biomedical…     270.    391 Biological… Biologic… 121.   Smal…
 6 Biological and biomedical…      85.1   112 Biological… Biologic…  26.9  Smal…
 7 Biomedical sciences            346.    341 Biomedical… Biomedic…  -5.44 Stab…
 8 Biometrics and biostatist…     150.    216 Biometrics… Biometri…  65.6  Smal…
 9 Biophysics (biological sc…     181     208 Biophysics… Biophysi…  27    Smal…
10 Biotechnology                   36.1    33 Biotechnol… Biotechn…  -3.11 Stab…
# ℹ 30 more rows
…
